<?xml version="1.0" encoding="utf-8"?>
<!-- Generator: Adobe Illustrator 18.0.0, SVG Export Plug-In . SVG Version: 6.00 Build 0)  -->
<!DOCTYPE svg PUBLIC "-//W3C//DTD SVG 1.1//EN" "http://www.w3.org/Graphics/SVG/1.1/DTD/svg11.dtd">
<svg version="1.1" id="圖層_1" xmlns="http://www.w3.org/2000/svg" xmlns:xlink="http://www.w3.org/1999/xlink" x="0px" y="0px"
	 viewBox="0 0 512 151.6" enable-background="new 0 0 512 151.6" xml:space="preserve">
<g>
	<g>
		<linearGradient id="SVGID_1_" gradientUnits="userSpaceOnUse" x1="66.4053" y1="72.7418" x2="403.072" y2="111.4085">
			<stop  offset="3.547921e-002" style="stop-color:#2F90D0;stop-opacity:0.9"/>
			<stop  offset="0.3151" style="stop-color:#348DCD;stop-opacity:0.9291"/>
			<stop  offset="0.7012" style="stop-color:#3F83C5;stop-opacity:0.9693"/>
			<stop  offset="0.9961" style="stop-color:#4779BD"/>
		</linearGradient>
		<path fill="url(#SVGID_1_)" d="M74.4,94.5l5.8-6.9c3.6,3.3,8.3,5.6,12.7,5.6c5.2,0,8-2.2,8-5.8c0-3.7-3.1-4.9-7.5-6.8l-6.7-2.8
			c-5.1-2.1-10.2-6.2-10.2-13.5c0-8.2,7.2-14.5,17.4-14.5c5.8,0,11.7,2.3,15.7,6.4l-5.1,6.3c-3.2-2.6-6.5-4.1-10.6-4.1
			c-4.4,0-7.3,2-7.3,5.3c0,3.6,3.6,4.9,7.9,6.6l6.6,2.8c6.1,2.5,10.1,6.4,10.1,13.6c0,8.2-6.8,15.2-18.4,15.2
			C86,101.9,79.3,99.2,74.4,94.5z"/>
		<linearGradient id="SVGID_2_" gradientUnits="userSpaceOnUse" x1="66.8523" y1="68.8501" x2="403.519" y2="107.5168">
			<stop  offset="3.547921e-002" style="stop-color:#2F90D0;stop-opacity:0.9"/>
			<stop  offset="0.3151" style="stop-color:#348DCD;stop-opacity:0.9291"/>
			<stop  offset="0.7012" style="stop-color:#3F83C5;stop-opacity:0.9693"/>
			<stop  offset="0.9961" style="stop-color:#4779BD"/>
		</linearGradient>
		<path fill="url(#SVGID_2_)" d="M143.6,88h-16.3l-3.5,12.9h-10.2l16.1-50.2h11.8l16.1,50.2h-10.5L143.6,88z M141.4,80.2l-1.5-5.5
			c-1.6-5.2-2.9-11-4.4-16.4h-0.3c-1.3,5.5-2.8,11.2-4.3,16.4l-1.5,5.5H141.4z"/>
		<linearGradient id="SVGID_3_" gradientUnits="userSpaceOnUse" x1="67.5217" y1="63.0218" x2="404.1884" y2="101.6885">
			<stop  offset="3.547921e-002" style="stop-color:#2F90D0;stop-opacity:0.9"/>
			<stop  offset="0.3151" style="stop-color:#348DCD;stop-opacity:0.9291"/>
			<stop  offset="0.7012" style="stop-color:#3F83C5;stop-opacity:0.9693"/>
			<stop  offset="0.9961" style="stop-color:#4779BD"/>
		</linearGradient>
		<path fill="url(#SVGID_3_)" d="M163.5,50.7h30.9v8.3h-20.9v13.1h17.8v8.4h-17.8v20.3h-10V50.7z"/>
		<linearGradient id="SVGID_4_" gradientUnits="userSpaceOnUse" x1="68.0371" y1="58.5343" x2="404.7037" y2="97.201">
			<stop  offset="3.547921e-002" style="stop-color:#2F90D0;stop-opacity:0.9"/>
			<stop  offset="0.3151" style="stop-color:#348DCD;stop-opacity:0.9291"/>
			<stop  offset="0.7012" style="stop-color:#3F83C5;stop-opacity:0.9693"/>
			<stop  offset="0.9961" style="stop-color:#4779BD"/>
		</linearGradient>
		<path fill="url(#SVGID_4_)" d="M203.2,50.7h30.8v8.3h-20.7v11.6h17.6v8.4h-17.6v13.4h21.5v8.4h-31.5V50.7z"/>
		<linearGradient id="SVGID_5_" gradientUnits="userSpaceOnUse" x1="68.676" y1="52.9712" x2="405.3427" y2="91.6378">
			<stop  offset="3.547921e-002" style="stop-color:#2F90D0;stop-opacity:0.9"/>
			<stop  offset="0.3151" style="stop-color:#348DCD;stop-opacity:0.9291"/>
			<stop  offset="0.7012" style="stop-color:#3F83C5;stop-opacity:0.9693"/>
			<stop  offset="0.9961" style="stop-color:#4779BD"/>
		</linearGradient>
		<path fill="url(#SVGID_5_)" d="M244.9,50.7H256l8.5,23.5c1.1,3.1,2,6.4,3.1,9.7h0.3c1.1-3.3,2-6.6,3.1-9.7l8.3-23.5h11.1v50.2
			h-9.2V80c0-4.7,0.7-11.7,1.2-16.5h-0.3l-4.1,11.8l-7.7,21.1h-5.8l-7.8-21.1l-4-11.8h-0.3c0.5,4.7,1.3,11.7,1.3,16.5v20.9h-9V50.7z
			"/>
		<linearGradient id="SVGID_6_" gradientUnits="userSpaceOnUse" x1="69.2307" y1="48.1417" x2="405.8974" y2="86.8083">
			<stop  offset="3.547921e-002" style="stop-color:#2F90D0;stop-opacity:0.9"/>
			<stop  offset="0.3151" style="stop-color:#348DCD;stop-opacity:0.9291"/>
			<stop  offset="0.7012" style="stop-color:#3F83C5;stop-opacity:0.9693"/>
			<stop  offset="0.9961" style="stop-color:#4779BD"/>
		</linearGradient>
		<path fill="url(#SVGID_6_)" d="M326.3,88H310l-3.5,12.9h-10.2l16.1-50.2h11.8l16.1,50.2h-10.5L326.3,88z M324.1,80.2l-1.5-5.5
			c-1.6-5.2-2.9-11-4.4-16.4h-0.3c-1.3,5.5-2.8,11.2-4.3,16.4l-1.5,5.5H324.1z"/>
		<linearGradient id="SVGID_7_" gradientUnits="userSpaceOnUse" x1="69.9186" y1="42.152" x2="406.5853" y2="80.8186">
			<stop  offset="3.547921e-002" style="stop-color:#2F90D0;stop-opacity:0.9"/>
			<stop  offset="0.3151" style="stop-color:#348DCD;stop-opacity:0.9291"/>
			<stop  offset="0.7012" style="stop-color:#3F83C5;stop-opacity:0.9693"/>
			<stop  offset="0.9961" style="stop-color:#4779BD"/>
		</linearGradient>
		<path fill="url(#SVGID_7_)" d="M350.9,59.1h-14.1v-8.3h38.4v8.3H361v41.8h-10V59.1z"/>
		<linearGradient id="SVGID_8_" gradientUnits="userSpaceOnUse" x1="70.3828" y1="38.1101" x2="407.0495" y2="76.7768">
			<stop  offset="3.547921e-002" style="stop-color:#2F90D0;stop-opacity:0.9"/>
			<stop  offset="0.3151" style="stop-color:#348DCD;stop-opacity:0.9291"/>
			<stop  offset="0.7012" style="stop-color:#3F83C5;stop-opacity:0.9693"/>
			<stop  offset="0.9961" style="stop-color:#4779BD"/>
		</linearGradient>
		<path fill="url(#SVGID_8_)" d="M383.3,50.7h30.8v8.3h-20.7v11.6H411v8.4h-17.6v13.4h21.5v8.4h-31.5V50.7z"/>
	</g>
	<g>
		<g>
			<linearGradient id="SVGID_9_" gradientUnits="userSpaceOnUse" x1="68.9258" y1="50.7962" x2="405.5925" y2="89.4629">
				<stop  offset="3.547921e-002" style="stop-color:#2F90D0;stop-opacity:0.9"/>
				<stop  offset="0.3151" style="stop-color:#348DCD;stop-opacity:0.9291"/>
				<stop  offset="0.7012" style="stop-color:#3F83C5;stop-opacity:0.9693"/>
				<stop  offset="0.9961" style="stop-color:#4779BD"/>
			</linearGradient>
			<path fill="url(#SVGID_9_)" d="M428.8,100.9c-4.8,0-8.8-3.9-8.8-8.8c0-4.8,3.9-8.8,8.8-8.8c4.8,0,8.8,3.9,8.8,8.8
				C437.6,97,433.6,100.9,428.8,100.9z M428.8,86c-3.4,0-6.1,2.8-6.1,6.1c0,3.4,2.8,6.1,6.1,6.1s6.1-2.8,6.1-6.1
				C434.9,88.7,432.2,86,428.8,86z"/>
		</g>
	</g>
</g>
</svg>
